stm32h7xx_hal_i2c_ex.c:97:19:HAL_I2CEx_ConfigAnalogFilter	16	static
stm32h7xx_hal_i2c_ex.c:141:19:HAL_I2CEx_ConfigDigitalFilter	16	static
stm32h7xx_hal_i2c_ex.c:192:19:HAL_I2CEx_EnableWakeUp	8	static
stm32h7xx_hal_i2c_ex.c:231:19:HAL_I2CEx_DisableWakeUp	8	static
stm32h7xx_hal_i2c_ex.c:283:6:HAL_I2CEx_EnableFastModePlus	16	static
stm32h7xx_hal_i2c_ex.c:314:6:HAL_I2CEx_DisableFastModePlus	16	static
